{
    "KPlugin": {
        "Authors": [
            {
                "Email": "sebas@kde.org",
                "Name": "Sebastian Kügler",
                "Name[ar]": "Sebastian Kügler",
                "Name[az]": "Sebastian Kügler",
                "Name[ca]": "Sebastian Kügler",
                "Name[cs]": "Sebastian Kügler",
                "Name[en_GB]": "Sebastian Kügler",
                "Name[es]": "Sebastian Kügler",
                "Name[fr]": "Sebastian Kügler",
                "Name[hu]": "Sebastian Kügler",
                "Name[ia]": "Sebastian Kügler",
                "Name[it]": "Sebastian Kügler",
                "Name[lt]": "Sebastian Kügler",
                "Name[nl]": "Sebastian Kügler",
                "Name[nn]": "Sebastian Kügler",
                "Name[pa]": "Sebastian Kügler",
                "Name[pl]": "Sebastian Kügler",
                "Name[pt_BR]": "Sebastian Kügler",
                "Name[ru]": "Sebastian Kügler",
                "Name[sl]": "Sebastian Kügler",
                "Name[sv]": "Sebastian Kügler",
                "Name[uk]": "Sebastian Kügler",
                "Name[vi]": "Sebastian Kügler",
                "Name[x-test]": "xxSebastian Küglerxx",
                "Name[zh_CN]": "Sebastian Kügler"
            }
        ],
        "EnabledByDefault": true,
        "Icon": "document-open-recent",
        "Id": "recentdocuments",
        "License": "LGPL",
        "Name": "Recent Files",
        "Name[ar]": "الملفات الحديثة",
        "Name[ast]": "Ficheros d'apocayá",
        "Name[az]": "Sonuncu fayllar",
        "Name[ca]": "Fitxers recents",
        "Name[cs]": "Nedávné soubory",
        "Name[da]": "Nylige filer",
        "Name[de]": "Zuletzt geöffnete Dateien",
        "Name[en_GB]": "Recent Files",
        "Name[es]": "Archivos recientes",
        "Name[et]": "Viimati kasutatud failid",
        "Name[eu]": "Azken aldiko fitxategiak",
        "Name[fi]": "Viimeisimmät tiedostot",
        "Name[fr]": "Fichiers récents",
        "Name[hi]": "हाल हीं के फाइल",
        "Name[hsb]": "Njedawne dataje",
        "Name[hu]": "Legutóbbi fájlok",
        "Name[ia]": "Files recente",
        "Name[id]": "File Baru-baru Ini",
        "Name[it]": "File recenti",
        "Name[ko]": "최근 파일",
        "Name[lt]": "Paskiausiai naudoti failai",
        "Name[ml]": "സമീപകാല ഫയലുകൾ",
        "Name[nl]": "Recente bestanden",
        "Name[nn]": "Nyleg brukte filer",
        "Name[pa]": "ਤਾਜ਼ਾ ਫ਼ਾਇਲਾਂ",
        "Name[pl]": "Ostatnie pliki",
        "Name[pt]": "Ficheiros Recentes",
        "Name[pt_BR]": "Arquivos recentes",
        "Name[ro]": "Fișiere recente",
        "Name[ru]": "Последние файлы",
        "Name[sk]": "Nedávne súbory",
        "Name[sl]": "Zadnje datoteke",
        "Name[sv]": "Senaste filer",
        "Name[ta]": "சமீப கோப்புகள்",
        "Name[tg]": "Файлҳои охирон",
        "Name[tr]": "Son Dosyalar",
        "Name[uk]": "Нещодавні файли",
        "Name[vi]": "Tệp gần đây",
        "Name[x-test]": "xxRecent Filesxx",
        "Name[zh_CN]": "最近文件"
    },
    "X-Plasma-Runner-Unique-Results": true
}
