{
    "KPlugin": {
        "Authors": [
            {
                "Email": "plasma-devel@kde.org",
                "Name": "Plasma Team",
                "Name[ar]": "فريق بلازما",
                "Name[az]": "Plasma komandası",
                "Name[ca]": "L'equip del Plasma",
                "Name[cs]": "Team Plasma",
                "Name[en_GB]": "Plasma Team",
                "Name[es]": "Equipo de Plasma",
                "Name[fr]": "Équipe de Plasma",
                "Name[hu]": "A Plasma fejlesztői",
                "Name[ia]": "Equipa de Plasma",
                "Name[it]": "La squadra di Plasma",
                "Name[lt]": "Plasma komanda",
                "Name[nl]": "Team van Plasma",
                "Name[nn]": "Utviklingslaget for Plasma",
                "Name[pa]": "ਪਲਾਜ਼ਮਾ ਟੀਮ",
                "Name[pl]": "Zespół Plazmy",
                "Name[pt_BR]": "Temas do Plasma",
                "Name[ru]": "Команда разработчиков Plasma",
                "Name[sl]": "Ekipa Plasme",
                "Name[sv]": "Plasma-gruppen",
                "Name[ta]": "பிளாஸ்மா குழு",
                "Name[uk]": "Команда розробників Плазми",
                "Name[vi]": "Đội Plasma",
                "Name[x-test]": "xxPlasma Teamxx",
                "Name[zh_CN]": "Plasma 开发团队"
            }
        ],
        "Description": "Calculate expressions",
        "Description[ar]": "احسب التعابير",
        "Description[az]": "İfadələrin hesablanması",
        "Description[ca]": "Calcula expressions",
        "Description[en_GB]": "Calculate expressions",
        "Description[es]": "Calcular expresiones",
        "Description[fr]": "Calculer des expressions",
        "Description[hu]": "Kifejezéseket kezelni tudó számológép",
        "Description[ia]": "Calcula expressiones",
        "Description[it]": "Calcola le espressioni",
        "Description[lt]": "Skaičiuoti reiškinius",
        "Description[nl]": "Expressies berekenen",
        "Description[nn]": "Grafisk kalkulator",
        "Description[pa]": "ਸਮੀਕਰਨ ਕੱਢੋ",
        "Description[pl]": "Oblicza wyrażenia matematyczne",
        "Description[pt_BR]": "Calcula expressões",
        "Description[ru]": "Вычисление выражений",
        "Description[sl]": "Izračunaj izraze",
        "Description[sv]": "Beräkna uttryck",
        "Description[ta]": "கணக்கு போடும்",
        "Description[uk]": "Обчислення виразів",
        "Description[vi]": "Tính biểu thức",
        "Description[x-test]": "xxCalculate expressionsxx",
        "Description[zh_CN]": "计算表达式",
        "EnabledByDefault": true,
        "Icon": "accessories-calculator",
        "Id": "calculator",
        "License": "LGPL",
        "Name": "Calculator",
        "Name[ar]": "آلة حاسبة",
        "Name[ast]": "Calculadora",
        "Name[az]": "Kalkulyator",
        "Name[be@latin]": "Kalkulatar",
        "Name[bg]": "Калкулатор",
        "Name[bn]": "ক্যালকুলেটর",
        "Name[bn_IN]": "ক্যালকুলেটর",
        "Name[bs]": "Kalkulator",
        "Name[ca@valencia]": "Calculadora",
        "Name[ca]": "Calculadora",
        "Name[cs]": "Kalkulátor",
        "Name[csb]": "Kalkùlator",
        "Name[da]": "Lommeregner",
        "Name[de]": "Rechner",
        "Name[el]": "Αριθμομηχανή",
        "Name[en_GB]": "Calculator",
        "Name[eo]": "Kalkulilo",
        "Name[es]": "Calculadora",
        "Name[et]": "Kalkulaator",
        "Name[eu]": "Kalkulagailua",
        "Name[fi]": "Laskin",
        "Name[fr]": "Calculatrice",
        "Name[fy]": "Rekkenmasine",
        "Name[ga]": "Áireamhán",
        "Name[gl]": "Calculadora",
        "Name[gu]": "કેલ્ક્યુલેટર",
        "Name[he]": "מחשבון",
        "Name[hi]": "गणक",
        "Name[hne]": "केलकुलेटर",
        "Name[hr]": "Kalkulator",
        "Name[hsb]": "Kapsny ličak",
        "Name[hu]": "Számológép",
        "Name[ia]": "Calculator",
        "Name[id]": "Kalkulator",
        "Name[is]": "Reiknivél",
        "Name[it]": "Calcolatrice",
        "Name[ja]": "計算機",
        "Name[kk]": "Калькулятор",
        "Name[km]": "ម៉ាស៊ីន​គិត​លេខ",
        "Name[kn]": "ಲೆಕ್ಕಿಗ (ಕಾಲ್ಕುಲೇಟರ್)",
        "Name[ko]": "계산기",
        "Name[ku]": "Makîneya Hesaban",
        "Name[lt]": "Skaičiuotuvas",
        "Name[lv]": "Kalkulators",
        "Name[mai]": "कैलकुलेटर",
        "Name[mk]": "Калкулатор",
        "Name[ml]": "കാല്‍ക്കുലേറ്റര്‍",
        "Name[mr]": "गणनायंत्र",
        "Name[nb]": "Kalkulator",
        "Name[nds]": "Taschenreekner",
        "Name[nl]": "Rekenmachine",
        "Name[nn]": "Kalkulator",
        "Name[or]": "କାଲକୁଲେଟର",
        "Name[pa]": "ਕੈਲਕੂਲੇਟਰ",
        "Name[pl]": "Kalkulator",
        "Name[pt]": "Calculadora",
        "Name[pt_BR]": "Calculadora",
        "Name[ro]": "Calculator",
        "Name[ru]": "Калькулятор",
        "Name[se]": "Kalkuláhtor",
        "Name[si]": "ගණනය",
        "Name[sk]": "Kalkulačka",
        "Name[sl]": "Računalo",
        "Name[sr@ijekavian]": "калкулатор",
        "Name[sr@ijekavianlatin]": "kalkulator",
        "Name[sr@latin]": "kalkulator",
        "Name[sr]": "калкулатор",
        "Name[sv]": "Miniräknare",
        "Name[ta]": "கணிப்பான்",
        "Name[te]": "గణనపరికరం",
        "Name[tg]": "Ҳисобкунак",
        "Name[th]": "เครื่องคิดเลข",
        "Name[tr]": "Hesap Makinesi",
        "Name[ug]": "ھېسابلىغۇچ",
        "Name[uk]": "Калькулятор",
        "Name[uz@cyrillic]": "Калкулятор",
        "Name[uz]": "Kalkulyator",
        "Name[vi]": "Máy tính bỏ túi",
        "Name[wa]": "Carculete",
        "Name[x-test]": "xxCalculatorxx",
        "Name[zh_CN]": "计算器",
        "Name[zh_TW]": "計算機"
    }
}
