{
    "KPlugin": {
        "Authors": [
            {
                "Email": "drf@kdemod.ath.cx",
                "Name": "Dario Freddi",
                "Name[ar]": "Dario Freddi",
                "Name[az]": "Dario Freddi",
                "Name[ca]": "Dario Freddi",
                "Name[en_GB]": "Dario Freddi",
                "Name[es]": "Dario Freddi",
                "Name[fr]": "Dario Freddi",
                "Name[hu]": "Dario Freddi",
                "Name[ia]": "Dario Freddi",
                "Name[it]": "Dario Freddi",
                "Name[lt]": "Dario Freddi",
                "Name[nl]": "Dario Freddi",
                "Name[nn]": "Dario Freddi",
                "Name[pl]": "Dario Freddi",
                "Name[pt_BR]": "Dario Freddi",
                "Name[ru]": "Dario Freddi",
                "Name[sl]": "Dario Freddi",
                "Name[sv]": "Dario Freddi",
                "Name[uk]": "Dario Freddi",
                "Name[vi]": "Dario Freddi",
                "Name[x-test]": "xxDario Freddixx",
                "Name[zh_CN]": "Dario Freddi"
            }
        ],
        "Description": "Basic Power Management Operations",
        "Description[ar]": "عمليات إدارة الطاقة الأساسية",
        "Description[az]": "Əsas enerjiyə nəzarət əməliyyatları",
        "Description[ca]": "Operacions bàsiques en la gestió d'energia",
        "Description[en_GB]": "Basic Power Management Operations",
        "Description[es]": "Operaciones básicas de gestión de energía",
        "Description[fr]": "Opérations basiques de gestion de l'énergie",
        "Description[hu]": "Energiakezelési funkciók",
        "Description[ia]": "Operationes basic de gestion de energia",
        "Description[it]": "Operazioni di base per la gestione energetica",
        "Description[lt]": "Pagrindinės maitinimo valdymo operacijos",
        "Description[nl]": "Basis energiebeheeroperaties",
        "Description[nn]": "Grunnleggjande straumstyringsfunksjonar",
        "Description[pa]": "ਬੇਸਿਕ ਪਾਵਰ ਮੈਨਿਜਮੈਂਟ ਓਪਰੇਸ਼ਨ",
        "Description[pl]": "Umożliwia zarządzanie energią",
        "Description[pt_BR]": "Operações básicas de gerenciamento de energia",
        "Description[ru]": "Управление питанием",
        "Description[sl]": "Osnovna dejanja upravljanja z energijo",
        "Description[sv]": "Grundläggande strömsparfunktioner",
        "Description[ta]": "அடிப்படை ஆற்றல் மேலாண்மை செயல்கள்",
        "Description[uk]": "Керування базовими операціями з керування живленням",
        "Description[vi]": "Các thao tác cơ bản để quản lí nguồn điện",
        "Description[x-test]": "xxBasic Power Management Operationsxx",
        "Description[zh_CN]": "基本电源管理操作",
        "EnabledByDefault": true,
        "Icon": "preferences-system-power-management",
        "Id": "PowerDevil",
        "License": "GPL",
        "Name": "Power",
        "Name[ar]": "الطاقة",
        "Name[ast]": "Enerxía",
        "Name[az]": "El. qidalanması",
        "Name[ca@valencia]": "Energia",
        "Name[ca]": "Energia",
        "Name[cs]": "Energie",
        "Name[da]": "Power",
        "Name[de]": "Energie",
        "Name[el]": "Ενέργεια",
        "Name[en_GB]": "Power",
        "Name[es]": "Energía",
        "Name[et]": "Voolutarve",
        "Name[eu]": "Energia",
        "Name[fi]": "Virta",
        "Name[fr]": "Énergie",
        "Name[gl]": "Enerxía",
        "Name[he]": "כוח (חשמל)",
        "Name[hi]": "बिजली",
        "Name[hsb]": "Milina",
        "Name[hu]": "Teljesítmény",
        "Name[ia]": "Potentia",
        "Name[id]": "Daya",
        "Name[is]": "Orkustýring",
        "Name[it]": "Alimentazione",
        "Name[ja]": "電源",
        "Name[ko]": "전원",
        "Name[lt]": "Maitinimas",
        "Name[lv]": "Enerģija",
        "Name[ml]": "ഊർജ്ജം",
        "Name[nl]": "Energie",
        "Name[nn]": "På / av",
        "Name[pa]": "ਪਾਵਰ",
        "Name[pl]": "Zasilanie",
        "Name[pt]": "Energia",
        "Name[pt_BR]": "Energia",
        "Name[ro]": "Alimentare",
        "Name[ru]": "Электропитание",
        "Name[sk]": "Napájanie",
        "Name[sl]": "Energija",
        "Name[sr@ijekavian]": "напајање",
        "Name[sr@ijekavianlatin]": "napajanje",
        "Name[sr@latin]": "napajanje",
        "Name[sr]": "напајање",
        "Name[sv]": "Effekt",
        "Name[ta]": "ஆற்றல்",
        "Name[tg]": "Барқ",
        "Name[tr]": "Güç",
        "Name[uk]": "Живлення",
        "Name[vi]": "Nguồn điện",
        "Name[x-test]": "xxPowerxx",
        "Name[zh_CN]": "电源",
        "Name[zh_TW]": "電源"
    },
    "X-Plasma-ShowDesciptionInOverview": true
}
