{
    "KPlugin": {
        "Authors": [
            {
                "Email": "",
                "Name": ""
            }
        ],
        "Category": "",
        "Description": "Run Executable Data Engine",
        "Description[ar]": "محرك بيانات لتشغل برامج الأوامر",
        "Description[az]": "İcra oluna bilən verilənlər mexanizmini işə salmaq",
        "Description[ca]": "Motor de dades d'ordres executables",
        "Description[en_GB]": "Run Executable Data Engine",
        "Description[es]": "Ejecutar motor de datos ejecutables",
        "Description[fr]": "Lancer le moteur de données d'exécutables",
        "Description[hu]": "Adatkezelő futtatása",
        "Description[ia]": "Motor per exequer datos executabile",
        "Description[it]": "Motore di dati per esecuzione di comandi",
        "Description[lt]": "Paleisti vykdomąjį duomenų variklį",
        "Description[nl]": "Uitvoerbare gegevensengine starten",
        "Description[nn]": "Datamotor for kommandokøyrar",
        "Description[pa]": "ਚੱਲਣਯੋਗ ਡਾਟਾ ਇੰਜਣ ਚਲਾਓ",
        "Description[pl]": "Silnik wykonywania danych wykonywalnych",
        "Description[pt_BR]": "Mecanismo de dados da execução de comandos",
        "Description[ru]": "Источник данных исполняемых объектов",
        "Description[sl]": "Zaženi podatkovni vir o izvajalnih programih",
        "Description[sv]": "Datagränssnitt för att köra program",
        "Description[ta]": "இயக்க வல்லவற்றை இயக்கும் நிரல்",
        "Description[uk]": "Виконати програму рушія даних",
        "Description[vi]": "Chạy dụng cụ \"Dữ liệu\" thực thi được",
        "Description[x-test]": "xxRun Executable Data Enginexx",
        "Description[zh_CN]": "运行程序数据引擎",
        "Icon": "application-x-executable-script",
        "Id": "executable",
        "Name": "Run Commands",
        "Name[ar]": "شغّل أوامر",
        "Name[az]": "Əmrləri başlatmaq",
        "Name[be@latin]": "Vykonvaj zahady",
        "Name[bg]": "Изпълнение на команди",
        "Name[bn]": "কমান্ড চালাও",
        "Name[bn_IN]": "কমান্ড সঞ্চালনা",
        "Name[bs]": "Izvršavanje naredbi",
        "Name[ca@valencia]": "Execució d'ordres",
        "Name[ca]": "Execució d'ordres",
        "Name[cs]": "Spustit příkazy",
        "Name[csb]": "Zrëszanié pòlétów",
        "Name[da]": "Kør kommandoer",
        "Name[de]": "Befehle ausführen",
        "Name[el]": "Εκτέλεση εντολών",
        "Name[en_GB]": "Run Commands",
        "Name[eo]": "Lanĉi komandon",
        "Name[es]": "Ejecutar órdenes",
        "Name[et]": "Käsu käivitamine",
        "Name[eu]": "Exekutatu komandoak",
        "Name[fi]": "Suorita komentoja",
        "Name[fr]": "Exécuter des commandes",
        "Name[fy]": "Rin kommando's",
        "Name[ga]": "Rith Orduithe",
        "Name[gl]": "Executar ordes",
        "Name[gu]": "આદેશ ચલાવો",
        "Name[he]": "הרצת פקודות",
        "Name[hi]": "कमांड चलाएँ",
        "Name[hne]": "कमांड चलाव",
        "Name[hr]": "Pokreni naredbe",
        "Name[hsb]": "Přikazy wuwjesć",
        "Name[hu]": "Parancsvégrehajtó",
        "Name[ia]": "Exeque commandos",
        "Name[id]": "Jalankan Perintah",
        "Name[is]": "Keyra skipanir",
        "Name[it]": "Esegui comandi",
        "Name[ja]": "コマンドを実行",
        "Name[kk]": "Команданы орындау",
        "Name[km]": "រត់​ពាក្យ​បញ្ជា",
        "Name[kn]": "ಆದೇಶಗಳನ್ನು ಚಲಾಯಿಸು",
        "Name[ko]": "명령 실행",
        "Name[ku]": "Fermanan Bixebitîne",
        "Name[lt]": "Vykdyti komandas",
        "Name[lv]": "Palaist komandas",
        "Name[mk]": "Изврши наредби",
        "Name[ml]": "ആജ്ഞകള്‍ പ്രവര്‍ത്തിപ്പിയ്ക്കുക",
        "Name[mr]": "आदेश चालवा",
        "Name[nb]": "Kjør kommandoer",
        "Name[nds]": "Befehlen utföhren",
        "Name[nl]": "Commando's uitvoeren",
        "Name[nn]": "Køyr kommandoar",
        "Name[or]": "ନିର୍ଦ୍ଦେଶଗୁଡ଼ିକୁ ଚଲାନ୍ତୁ",
        "Name[pa]": "ਕਮਾਂਡਾਂ ਚਲਾਓ",
        "Name[pl]": "Wykonywanie poleceń",
        "Name[pt]": "Execução de Comandos",
        "Name[pt_BR]": "Executar comandos",
        "Name[ro]": "Execută comenzi",
        "Name[ru]": "Выполнить команду",
        "Name[si]": "විධාන ක්‍රියාත්මක කරන්න",
        "Name[sk]": "Spustiť príkazy",
        "Name[sl]": "Zaganjanje ukazov",
        "Name[sr@ijekavian]": "извршавање наредби",
        "Name[sr@ijekavianlatin]": "izvršavanje naredbi",
        "Name[sr@latin]": "izvršavanje naredbi",
        "Name[sr]": "извршавање наредби",
        "Name[sv]": "Kör kommandon",
        "Name[ta]": "கட்டளைகளை இயக்கு",
        "Name[tg]": "Иҷрои фармонҳо",
        "Name[th]": "ประมวลผลคำสั่ง",
        "Name[tr]": "Komut Çalıştır",
        "Name[ug]": "بۇيرۇقلارنى ئىجرا قىل",
        "Name[uk]": "Виконання команд",
        "Name[vi]": "Chạy lệnh",
        "Name[wa]": "Enonder des cmandes",
        "Name[x-test]": "xxRun Commandsxx",
        "Name[zh_CN]": "运行命令",
        "Name[zh_TW]": "執行指令",
        "Website": "https://kde.org/plasma-desktop"
    }
}
